<svg width="100" height="96" viewBox="0 0 100 96" fill="none" xmlns="http://www.w3.org/2000/svg">
<path d="M65.9025 43.8563C59.3248 39.3866 51.0371 38.5943 43.733 41.738C36.4288 44.8817 31.2883 51.4535 29.9822 59.3163L26.8332 78.2633C26.3107 81.4065 26.8008 84.5678 28.249 87.4032C29.6976 90.2391 31.9695 92.4827 34.8192 93.8937C37.6692 95.3022 40.8285 95.7436 43.9557 95.1706C47.0825 94.5975 49.8831 93.0622 52.0542 90.7319L52.1992 90.5751C57.6875 84.771 65.3901 81.4874 73.3688 81.5582C75.4267 81.5764 77.4265 81.1727 79.2779 80.3759C80.2845 79.9426 81.2482 79.3922 82.1534 78.7312C84.7228 76.8532 86.5818 74.252 87.5298 71.2081C88.4768 68.1653 88.4233 64.9662 87.3746 61.9573C86.3261 58.9483 84.3818 56.4137 81.7517 54.6257L65.9025 43.8563ZM23.0333 62.2839C25.3941 59.9795 26.5651 56.772 26.3304 53.2526C26.1074 49.9033 24.6196 46.654 22.1404 44.103C19.6616 41.5542 16.4613 39.9798 13.1284 39.6694C9.62764 39.344 6.40068 40.4347 4.04523 42.7393C-0.695465 47.3704 -0.294547 55.5243 4.94127 60.9191C9.11583 65.2096 15.1144 66.4706 19.7763 64.4641C20.9866 63.945 22.0909 63.2058 23.0333 62.2839ZM36.4897 42.7101C43.5855 39.6561 46.5399 30.5768 43.0756 22.4709C39.6105 14.3631 31.0186 10.2518 23.9229 13.3058C16.8278 16.3595 13.8746 25.4397 17.3397 33.5476C20.804 41.6534 29.3945 45.7638 36.4897 42.7101ZM60.2575 36.7565L60.2582 36.7562C61.4791 36.6523 62.6755 36.3519 63.8014 35.8666C68.9761 33.6394 72.4053 27.6925 71.8491 21.0604C71.5296 17.2426 69.9468 13.7415 67.393 11.2027C64.7203 8.54441 61.3167 7.24476 57.8089 7.5431C54.3001 7.84163 51.1613 9.69794 48.9693 12.7695C46.8751 15.7035 45.8987 19.4223 46.2198 23.2394C46.8957 31.2926 53.1931 37.3563 60.2575 36.7565ZM86.6244 23.377L86.6215 23.3758C80.1793 21.8575 73.5323 26.5782 71.8041 33.9014C70.081 41.2255 73.9165 48.4241 80.3525 49.9483C82.7001 50.505 85.0761 50.2313 87.2309 49.3039C90.9868 47.6874 94.0726 44.0836 95.174 39.425C96.8965 32.101 93.0618 24.9021 86.6243 23.3768L86.6244 23.377Z" fill="#E47537"/>
</svg>
